…
## Exploratory Data Analysis (EDA)

Let’s first do some EDA on our data.

``` r
# View the number of board game publishers
board_games_raw %>%
  count(publisher, sort = TRUE)
```

    ## # A tibble: 5,513 x 2
    ##    publisher                                n
    ##    <chr>                                <int>
    ##  1 GMT Games                              180
    ##  2 SPI (Simulations Publications, Inc.)   128
    ##  3 Ravensburger Spieleverlag GmbH         103
    ##  4 Avalon Hill                            102
    ##  5 KOSMOS                                  74
    ##  6 Decision Games (I)                      71
    ##  7 Queen Games                             70
    ##  8 Games Workshop Ltd.                     62
    ##  9 Hasbro                                  62
    ## 10 Avalanche Press Ltd.                    60
    ## # ... with 5,503 more rows
…
From the histogram above, the average rating of the board games seems to
be quite normally distributed around the 6.25 value. This is a good news
if we might want to fit a model to predict these ratings.

``` r
# View the number of board games by maximum playtime
board_games_raw %>%
  count(max_playtime, sort = TRUE)
```

    ## # A tibble: 83 x 2
    ##    max_playtime     n
    ##           <dbl> <int>
    ##  1           30  1898
    ##  2           60  1608
    ##  3           45  1164
    ##  4           20   972
    ##  5          120   879
    ##  6           90   864
    ##  7           15   540
    ##  8          180   443
    ##  9           10   373
    ## 10            0   350
    ## # ... with 73 more rows
…
After making a tibble for the categorical variables, we can explore more
about these variables.

``` r
# Create a variable for the counts
categorical_counts <- categorical_variables %>%
  count(type, value, sort = TRUE)
categorical_counts
```

    ## # A tibble: 11,464 x 3
    ##    type     value                         n
    ##    <chr>    <chr>                     <int>
    ##  1 category Card Game                  2359
    ##  2 mechanic Dice Rolling               1968
    ##  3 mechanic Hand Management            1748
    ##  4 category Wargame                    1621
    ##  5 mechanic Set Collection             1060
    ##  6 mechanic Hex-and-Counter             996
    ##  7 mechanic Variable Player Powers      974
    ##  8 category Fantasy                     966
    ##  9 family   Crowdfunding: Kickstarter   802
    ## 10 mechanic Tile Placement              722
    ## # ... with 11,454 more rows
…
As we can see here, adding the year published to our predictors
significantly reduce our residual standard error to 0.7464.

``` r
# Create a tibble for the average rating based on categorical variables
board_games %>%
  inner_join(categorical_variables, by = c("game_id", "name")) %>%
  select(type, value, average_rating) %>%
  group_by(type, value) %>%
  summarize(games = n(),
            average_rating = mean(average_rating)) %>%
  arrange(desc(games))
```

    ## # A tibble: 11,464 x 4
    ## # Groups:   type [5]
    ##    type     value                     games average_rating
    ##    <chr>    <chr>                     <int>          <dbl>
    ##  1 category Card Game                  2359           6.25
    ##  2 mechanic Dice Rolling               1968           6.58
    ##  3 mechanic Hand Management            1748           6.53
    ##  4 category Wargame                    1621           6.77
    ##  5 mechanic Set Collection             1060           6.29
    ##  6 mechanic Hex-and-Counter             996           6.75
    ##  7 mechanic Variable Player Powers      974           6.78
    ##  8 category Fantasy                     966           6.52
    ##  9 family   Crowdfunding: Kickstarter   802           6.78
    ## 10 mechanic Tile Placement              722           6.49
    ## # ... with 11,454 more rows
…
# Target
ratings <- board_games$average_rating[match(rownames(feature_matrix), board_games$game_id)]
```

Now, let’s fit our data to a Lasso Regression model using the glmnet
library. Here, we will also be using the Cross-Validation (CV) method.

``` r
# Fit the model and use the CV method
cv_lasso <- cv.glmnet(feature_matrix, ratings)
cv_lasso$glmnet.fit %>%
  tidy()
```

    ## # A tibble: 14,826 x 5
    ##    term                           step estimate lambda dev.ratio
    ##    <chr>                         <dbl>    <dbl>  <dbl>     <dbl>
    ##  1 (Intercept)                       1   6.37    0.245    0     
    ##  2 (Intercept)                       2   6.38    0.223    0.0141
    ##  3 designer_(Uncredited)             2  -0.0942  0.223    0.0141
    ##  4 (Intercept)                       3   6.38    0.203    0.0269
    ##  5 mechanic_Roll / Spin and Move     3  -0.0105  0.203    0.0269
    ##  6 designer_(Uncredited)             3  -0.177   0.203    0.0269
    ##  7 (Intercept)                       4   6.39    0.185    0.0441
    ##  8 mechanic_Roll / Spin and Move     4  -0.0661  0.185    0.0441
    ##  9 category_Wargame                  4   0.0110  0.185    0.0441
    ## 10 designer_(Uncredited)             4  -0.237   0.185    0.0441
    ## # ... with 14,816 more rows
…
    ## [1] 0.01035688

Now, let’s fit that lambda value to our model.

``` r
cv_lasso$glmnet.fit %>%
  tidy() %>%
  filter(lambda == cv_lasso$lambda.1se) %>%
  arrange(desc(estimate))
```

    ## # A tibble: 180 x 5
    ##    term                           step estimate lambda dev.ratio
    ##    <chr>                         <dbl>    <dbl>  <dbl>     <dbl>
    ##  1 (Intercept)                      35    6.11  0.0104     0.415
    ##  2 designer_Urs Hostettler          35    0.519 0.0104     0.415
    ##  3 family_Tableau Building          35    0.513 0.0104     0.415
    ##  4 mechanic_Deck / Pool Building    35    0.493 0.0104     0.415
    ##  5 family_18xx                      35    0.489 0.0104     0.415
    ##  6 mechanic_Worker Placement        35    0.423 0.0104     0.415
    ##  7 designer_Dean Essig              35    0.422 0.0104     0.415
    ##  8 artist_Chechu Nieto              35    0.385 0.0104     0.415
    ##  9 category_Miniatures              35    0.368 0.0104     0.415
    ## 10 family_Crowdfunding: Verkami     35    0.364 0.0104     0.415
    ## # ... with 170 more rows
…
